/* XPM */
static char * single_xpm[] = {
"16 16 28 1",
" 	c None",
".	c #000000",
"+	c #070707",
"@	c #191919",
"#	c #020202",
"$	c #292929",
"%	c #3F4146",
"&	c #44484E",
"*	c #12171E",
"=	c #3D3F44",
"-	c #484848",
";	c #313846",
">	c #0C0C0D",
",	c #5A595D",
"'	c #5F6069",
")	c #191C21",
"!	c #E28214",
"~	c #14C3E2",
"{	c #685F5C",
"]	c #141414",
"^	c #595959",
"/	c #5B5E63",
"(	c #0F131C",
"_	c #101A25",
":	c #646872",
"<	c #636670",
"[	c #1A1819",
"}	c #1A272F",
"................",
"................",
"....++@..#$$....",
"....%%&**=--;...",
"....%%&**=--;...",
"...>,,'))!~~~...",
"....!!{+]!!!~...",
"....!!{+]!!!~...",
"......^^/((.....",
"....._::<~~.....",
"....._::<~~.....",
".....[!!!}}.....",
"......!!!.......",
"................",
"................",
"................"};
